%YAML 1.1
%TAG !u! tag:unity3d.com,2011:
--- !u!74 &7400000
AnimationClip:
  m_ObjectHideFlags: 0
  m_CorrespondingSourceObject: {fileID: 0}
  m_PrefabInstance: {fileID: 0}
  m_PrefabAsset: {fileID: 0}
  m_Name: BKIntroAnim
  serializedVersion: 6
  m_Legacy: 0
  m_Compressed: 0
  m_UseHighQualityCurve: 1
  m_RotationCurves: []
  m_CompressedRotationCurves: []
  m_EulerCurves: []
  m_PositionCurves: []
  m_ScaleCurves: []
  m_FloatCurves: []
  m_PPtrCurves:
  - curve:
    - time: 0
      value: {fileID: 21300000, guid: 8540cdb139d98494f82f27bf18f1792c, type: 3}
    - time: 0.016666668
      value: {fileID: 21300000, guid: d35b7e7ec20159146905703caf665f75, type: 3}
    - time: 0.033333335
      value: {fileID: 21300000, guid: 724d84e5a366ed24abd8d86016f5f7dd, type: 3}
    - time: 0.05
      value: {fileID: 21300000, guid: 78ec106b19369ac4d93b5cf0556ced4f, type: 3}
    - time: 0.06666667
      value: {fileID: 21300000, guid: 17edf63cbb0793042bf727100dd0e6b7, type: 3}
    - time: 0.083333336
      value: {fileID: 21300000, guid: 28752e0a30bdfd645b3e56bad8312dfc, type: 3}
    - time: 0.1
      value: {fileID: 21300000, guid: c919bfb352029024eb4a978638de24ad, type: 3}
    - time: 0.11666667
      value: {fileID: 21300000, guid: 2e737fcdf14be25499b59bfef459c900, type: 3}
    - time: 0.13333334
      value: {fileID: 21300000, guid: bc65504134b392342a7923ff44db9c45, type: 3}
    - time: 0.15
      value: {fileID: 21300000, guid: 7c70172cfc38cc04590fac2273f312c5, type: 3}
    - time: 0.16666667
      value: {fileID: 21300000, guid: 76ec6a5ea09382942ad5db2a262ce19f, type: 3}
    - time: 0.18333334
      value: {fileID: 21300000, guid: 44ddda7899ce2f64aad7687a12935837, type: 3}
    - time: 0.2
      value: {fileID: 21300000, guid: d603e1c734e79f5479185c7b80832de7, type: 3}
    - time: 0.21666667
      value: {fileID: 21300000, guid: 5542f93c86b00c4408f3ac29cec6fe77, type: 3}
    - time: 0.23333333
      value: {fileID: 21300000, guid: f5a56c513d4ef7e489aa5b2ec7e8939a, type: 3}
    - time: 0.25
      value: {fileID: 21300000, guid: 1e4841b007dde904daeba2568f58664a, type: 3}
    - time: 0.26666668
      value: {fileID: 21300000, guid: b8816f154912e7345ab0f2d82974b6c7, type: 3}
    - time: 0.28333333
      value: {fileID: 21300000, guid: d86e7e3fc2eeb5642865028b278d7b3e, type: 3}
    - time: 0.3
      value: {fileID: 21300000, guid: dfc5c00757e1f1d43a9fd77f26ecb5ad, type: 3}
    - time: 0.31666666
      value: {fileID: 21300000, guid: 928f2e4c5134ae143867d98067cc1238, type: 3}
    - time: 0.33333334
      value: {fileID: 21300000, guid: 57d2f51fc77600b44937dc598fdb43c5, type: 3}
    - time: 0.35
      value: {fileID: 21300000, guid: c7181d060f345d94e804e5bde42375a1, type: 3}
    - time: 0.36666667
      value: {fileID: 21300000, guid: 17c1d68feea8ce744a249bc5eb5fff5e, type: 3}
    - time: 0.38333333
      value: {fileID: 21300000, guid: dccaabf03df70c242b4da7057fba4817, type: 3}
    - time: 0.4
      value: {fileID: 21300000, guid: 9391ed1103d26a0478a1ec8aadf3cd38, type: 3}
    - time: 0.41666666
      value: {fileID: 21300000, guid: 5f10705a3f9dc6346a5d240a19302d10, type: 3}
    - time: 0.43333334
      value: {fileID: 21300000, guid: 3375d8e24e59e3e409c92ae1b14dfa15, type: 3}
    - time: 0.45
      value: {fileID: 21300000, guid: 9f85d523740709b438c7b393f8ef32df, type: 3}
    - time: 0.46666667
      value: {fileID: 21300000, guid: af4a756d902a1f24d99c675ddbe42063, type: 3}
    - time: 0.48333332
      value: {fileID: 21300000, guid: 3763bbae3ca5e8743887d079c47555b8, type: 3}
    - time: 0.5
      value: {fileID: 21300000, guid: 32d800a484a9d5a41bf312fc88c83c37, type: 3}
    - time: 0.51666665
      value: {fileID: 21300000, guid: 38651e8efeb5a71408f36e7a7701862c, type: 3}
    - time: 0.53333336
      value: {fileID: 21300000, guid: c9e1435790e6c1643888fe67b30440ce, type: 3}
    - time: 0.55
      value: {fileID: 21300000, guid: 100791d18d63f1340ba2429dfa6b2084, type: 3}
    - time: 0.56666666
      value: {fileID: 21300000, guid: da3bfcfd041ab6f4aa1d5b42df9d5416, type: 3}
    - time: 0.5833333
      value: {fileID: 21300000, guid: 66407f8466b4b0e43adb75e41a5df999, type: 3}
    - time: 0.6
      value: {fileID: 21300000, guid: b39dd96dc4886b649823d1e7b798d209, type: 3}
    - time: 0.6166667
      value: {fileID: 21300000, guid: 6b89fecef5a4c3d468d0cbf159d0f348, type: 3}
    - time: 0.6333333
      value: {fileID: 21300000, guid: 11c8663662969ad4789a270ffc533176, type: 3}
    - time: 0.65
      value: {fileID: 21300000, guid: 89a9030da8655704ab75bd0d00e45999, type: 3}
    - time: 0.6666667
      value: {fileID: 21300000, guid: bb83ee13406146341a06e1d6e527f592, type: 3}
    - time: 0.68333334
      value: {fileID: 21300000, guid: 4994d8fa3c9b3ad49b0de10e721290ff, type: 3}
    - time: 0.7
      value: {fileID: 21300000, guid: 565192e3434cec54e8740168eeb04ead, type: 3}
    - time: 0.71666664
      value: {fileID: 21300000, guid: 96768deb32682214fb6a32e589d5ff9c, type: 3}
    - time: 0.73333335
      value: {fileID: 21300000, guid: 5c15db81a068fbc4698b8307235b2c59, type: 3}
    - time: 0.75
      value: {fileID: 21300000, guid: a440a3e7e46cb05488767c35d5d67131, type: 3}
    - time: 0.76666665
      value: {fileID: 21300000, guid: 3510d2c6bdca3564389e722c96583107, type: 3}
    - time: 0.78333336
      value: {fileID: 21300000, guid: a74c3dab85ab7964a9fd6c2cce75840d, type: 3}
    - time: 0.8
      value: {fileID: 21300000, guid: 560c0c763b32b354eab112603a0e69d1, type: 3}
    - time: 0.81666666
      value: {fileID: 21300000, guid: 528b805bc3b61c3499938c9a8c705c65, type: 3}
    - time: 0.8333333
      value: {fileID: 21300000, guid: 9937c9207a8719d4f837ad8967b68aac, type: 3}
    - time: 0.85
      value: {fileID: 21300000, guid: fc40750d29e69da468ce0d3945e7a003, type: 3}
    attribute: m_Sprite
    path: 
    classID: 114
    script: {fileID: 11500000, guid: fe87c0e1cc204ed48ad3b37840f39efc, type: 3}
  m_SampleRate: 60
  m_WrapMode: 0
  m_Bounds:
    m_Center: {x: 0, y: 0, z: 0}
    m_Extent: {x: 0, y: 0, z: 0}
  m_ClipBindingConstant:
    genericBindings:
    - serializedVersion: 2
      path: 0
      attribute: 2015549526
      script: {fileID: 11500000, guid: fe87c0e1cc204ed48ad3b37840f39efc, type: 3}
      typeID: 114
      customType: 0
      isPPtrCurve: 1
    pptrCurveMapping:
    - {fileID: 21300000, guid: 8540cdb139d98494f82f27bf18f1792c, type: 3}
    - {fileID: 21300000, guid: d35b7e7ec20159146905703caf665f75, type: 3}
    - {fileID: 21300000, guid: 724d84e5a366ed24abd8d86016f5f7dd, type: 3}
    - {fileID: 21300000, guid: 78ec106b19369ac4d93b5cf0556ced4f, type: 3}
    - {fileID: 21300000, guid: 17edf63cbb0793042bf727100dd0e6b7, type: 3}
    - {fileID: 21300000, guid: 28752e0a30bdfd645b3e56bad8312dfc, type: 3}
    - {fileID: 21300000, guid: c919bfb352029024eb4a978638de24ad, type: 3}
    - {fileID: 21300000, guid: 2e737fcdf14be25499b59bfef459c900, type: 3}
    - {fileID: 21300000, guid: bc65504134b392342a7923ff44db9c45, type: 3}
    - {fileID: 21300000, guid: 7c70172cfc38cc04590fac2273f312c5, type: 3}
    - {fileID: 21300000, guid: 76ec6a5ea09382942ad5db2a262ce19f, type: 3}
    - {fileID: 21300000, guid: 44ddda7899ce2f64aad7687a12935837, type: 3}
    - {fileID: 21300000, guid: d603e1c734e79f5479185c7b80832de7, type: 3}
    - {fileID: 21300000, guid: 5542f93c86b00c4408f3ac29cec6fe77, type: 3}
    - {fileID: 21300000, guid: f5a56c513d4ef7e489aa5b2ec7e8939a, type: 3}
    - {fileID: 21300000, guid: 1e4841b007dde904daeba2568f58664a, type: 3}
    - {fileID: 21300000, guid: b8816f154912e7345ab0f2d82974b6c7, type: 3}
    - {fileID: 21300000, guid: d86e7e3fc2eeb5642865028b278d7b3e, type: 3}
    - {fileID: 21300000, guid: dfc5c00757e1f1d43a9fd77f26ecb5ad, type: 3}
    - {fileID: 21300000, guid: 928f2e4c5134ae143867d98067cc1238, type: 3}
    - {fileID: 21300000, guid: 57d2f51fc77600b44937dc598fdb43c5, type: 3}
    - {fileID: 21300000, guid: c7181d060f345d94e804e5bde42375a1, type: 3}
    - {fileID: 21300000, guid: 17c1d68feea8ce744a249bc5eb5fff5e, type: 3}
    - {fileID: 21300000, guid: dccaabf03df70c242b4da7057fba4817, type: 3}
    - {fileID: 21300000, guid: 9391ed1103d26a0478a1ec8aadf3cd38, type: 3}
    - {fileID: 21300000, guid: 5f10705a3f9dc6346a5d240a19302d10, type: 3}
    - {fileID: 21300000, guid: 3375d8e24e59e3e409c92ae1b14dfa15, type: 3}
    - {fileID: 21300000, guid: 9f85d523740709b438c7b393f8ef32df, type: 3}
    - {fileID: 21300000, guid: af4a756d902a1f24d99c675ddbe42063, type: 3}
    - {fileID: 21300000, guid: 3763bbae3ca5e8743887d079c47555b8, type: 3}
    - {fileID: 21300000, guid: 32d800a484a9d5a41bf312fc88c83c37, type: 3}
    - {fileID: 21300000, guid: 38651e8efeb5a71408f36e7a7701862c, type: 3}
    - {fileID: 21300000, guid: c9e1435790e6c1643888fe67b30440ce, type: 3}
    - {fileID: 21300000, guid: 100791d18d63f1340ba2429dfa6b2084, type: 3}
    - {fileID: 21300000, guid: da3bfcfd041ab6f4aa1d5b42df9d5416, type: 3}
    - {fileID: 21300000, guid: 66407f8466b4b0e43adb75e41a5df999, type: 3}
    - {fileID: 21300000, guid: b39dd96dc4886b649823d1e7b798d209, type: 3}
    - {fileID: 21300000, guid: 6b89fecef5a4c3d468d0cbf159d0f348, type: 3}
    - {fileID: 21300000, guid: 11c8663662969ad4789a270ffc533176, type: 3}
    - {fileID: 21300000, guid: 89a9030da8655704ab75bd0d00e45999, type: 3}
    - {fileID: 21300000, guid: bb83ee13406146341a06e1d6e527f592, type: 3}
    - {fileID: 21300000, guid: 4994d8fa3c9b3ad49b0de10e721290ff, type: 3}
    - {fileID: 21300000, guid: 565192e3434cec54e8740168eeb04ead, type: 3}
    - {fileID: 21300000, guid: 96768deb32682214fb6a32e589d5ff9c, type: 3}
    - {fileID: 21300000, guid: 5c15db81a068fbc4698b8307235b2c59, type: 3}
    - {fileID: 21300000, guid: a440a3e7e46cb05488767c35d5d67131, type: 3}
    - {fileID: 21300000, guid: 3510d2c6bdca3564389e722c96583107, type: 3}
    - {fileID: 21300000, guid: a74c3dab85ab7964a9fd6c2cce75840d, type: 3}
    - {fileID: 21300000, guid: 560c0c763b32b354eab112603a0e69d1, type: 3}
    - {fileID: 21300000, guid: 528b805bc3b61c3499938c9a8c705c65, type: 3}
    - {fileID: 21300000, guid: 9937c9207a8719d4f837ad8967b68aac, type: 3}
    - {fileID: 21300000, guid: fc40750d29e69da468ce0d3945e7a003, type: 3}
  m_AnimationClipSettings:
    serializedVersion: 2
    m_AdditiveReferencePoseClip: {fileID: 0}
    m_AdditiveReferencePoseTime: 0
    m_StartTime: 0
    m_StopTime: 0.8833333
    m_OrientationOffsetY: 0
    m_Level: 0
    m_CycleOffset: 0
    m_HasAdditiveReferencePose: 0
    m_LoopTime: 0
    m_LoopBlend: 0
    m_LoopBlendOrientation: 0
    m_LoopBlendPositionY: 0
    m_LoopBlendPositionXZ: 0
    m_KeepOriginalOrientation: 0
    m_KeepOriginalPositionY: 1
    m_KeepOriginalPositionXZ: 0
    m_HeightFromFeet: 0
    m_Mirror: 0
  m_EditorCurves: []
  m_EulerEditorCurves: []
  m_HasGenericRootTransform: 0
  m_HasMotionFloatCurves: 0
  m_Events:
  - time: 0.8833333
    functionName: LoadNewScene
    data: 
    objectReferenceParameter: {fileID: 0}
    floatParameter: 0
    intParameter: 0
    messageOptions: 0
