%YAML 1.1
%TAG !u! tag:unity3d.com,2011:
--- !u!74 &7400000
AnimationClip:
  m_ObjectHideFlags: 0
  m_CorrespondingSourceObject: {fileID: 0}
  m_PrefabInstance: {fileID: 0}
  m_PrefabAsset: {fileID: 0}
  m_Name: CelebrationAnim
  serializedVersion: 6
  m_Legacy: 0
  m_Compressed: 0
  m_UseHighQualityCurve: 1
  m_RotationCurves: []
  m_CompressedRotationCurves: []
  m_EulerCurves: []
  m_PositionCurves: []
  m_ScaleCurves: []
  m_FloatCurves: []
  m_PPtrCurves:
  - curve:
    - time: 0
      value: {fileID: 21300000, guid: 1d70a24d950cea141a755e5386be0808, type: 3}
    - time: 0.05
      value: {fileID: 21300000, guid: 3503420f03bc7e44e995632f605cd161, type: 3}
    - time: 0.083333336
      value: {fileID: 21300000, guid: 286f508405b853d4d852f2cad872b5cd, type: 3}
    - time: 0.13333334
      value: {fileID: 21300000, guid: bb720c0113fa0c44184a5cde607b8504, type: 3}
    - time: 0.18333334
      value: {fileID: 21300000, guid: b00e9cde6a2d1ec4baa1af7010d06bf6, type: 3}
    - time: 0.21666667
      value: {fileID: 21300000, guid: 7c1b679e324e68242816c77025da4f6a, type: 3}
    - time: 0.26666668
      value: {fileID: 21300000, guid: fab4903ee7ea01b48ac45bcfa05c5eeb, type: 3}
    - time: 0.31666666
      value: {fileID: 21300000, guid: da32a19f538ea7342ad6f1b972e4924e, type: 3}
    - time: 0.33333334
      value: {fileID: 21300000, guid: e94975a8ee511a942be674cddce160ad, type: 3}
    - time: 0.38333333
      value: {fileID: 21300000, guid: 1914844ccbd09834d9d2e03ce7f83831, type: 3}
    - time: 0.43333334
      value: {fileID: 21300000, guid: 12839059990fca341ad3f372e10fca86, type: 3}
    - time: 0.45
      value: {fileID: 21300000, guid: ce416b6199311724cbd7b000cb4f1e53, type: 3}
    - time: 0.51666665
      value: {fileID: 21300000, guid: 54602bc07e7b0a84f8a45699b92f9044, type: 3}
    - time: 0.56666666
      value: {fileID: 21300000, guid: f54d7a3666710f649bc01799955fb745, type: 3}
    - time: 0.5833333
      value: {fileID: 21300000, guid: 347c5967178f24c40a80f42a442e806a, type: 3}
    - time: 0.6333333
      value: {fileID: 21300000, guid: ddccd52b91903b047b82c3d7b5ba260d, type: 3}
    - time: 0.7
      value: {fileID: 21300000, guid: 2198ef3fb60e3c448809fe7d1f33213d, type: 3}
    - time: 0.71666664
      value: {fileID: 21300000, guid: 4909d7f706e6b0248bba11b045e654b8, type: 3}
    - time: 0.76666665
      value: {fileID: 21300000, guid: c25661a73b91ebc46b397f70e4331418, type: 3}
    - time: 0.81666666
      value: {fileID: 21300000, guid: 8193f385c6c29844ea3b0afd779c047f, type: 3}
    - time: 0.85
      value: {fileID: 21300000, guid: 9c3d7c99392384541be2063779ce0132, type: 3}
    - time: 0.9
      value: {fileID: 21300000, guid: 6c062824b1292ea40acddaf4233eb840, type: 3}
    - time: 0.95
      value: {fileID: 21300000, guid: 1c26ece2f31f0db419bf96b4561219e9, type: 3}
    - time: 0.98333335
      value: {fileID: 21300000, guid: adf9e1c8fb78fb54d990a9e50b335b99, type: 3}
    - time: 1.0166667
      value: {fileID: 21300000, guid: 963957081b28d1a4489af0f00244893d, type: 3}
    - time: 1.05
      value: {fileID: 21300000, guid: 4f0100d7149d4914faa55c5aa4d84e07, type: 3}
    - time: 1.1
      value: {fileID: 21300000, guid: 3b432d9364d577d40986e769bd7d5a29, type: 3}
    - time: 1.15
      value: {fileID: 21300000, guid: 86ba56b84fd7a974b90a2d682a5d410f, type: 3}
    - time: 1.1833333
      value: {fileID: 21300000, guid: e7c6c8f51d62c3344b081dd978177a9c, type: 3}
    - time: 1.2333333
      value: {fileID: 21300000, guid: e841406f6cd3e8847bddc61ee00a1bbc, type: 3}
    - time: 1.2833333
      value: {fileID: 21300000, guid: 2275b8fcff97bc1448969264eebdb9f1, type: 3}
    - time: 1.3
      value: {fileID: 21300000, guid: 55dcbe1741b6365428b51ecf41d92070, type: 3}
    - time: 1.3666667
      value: {fileID: 21300000, guid: a949f43498db50b489b74ff3796c23a2, type: 3}
    - time: 1.4166666
      value: {fileID: 21300000, guid: d198cf7875e64884d8b67c2ff543acb2, type: 3}
    - time: 1.4333333
      value: {fileID: 21300000, guid: fc8a0e5bc6b3a5b418047e4a811fe977, type: 3}
    - time: 1.4833333
      value: {fileID: 21300000, guid: 14f1d9914d160194ba81376be29e80ed, type: 3}
    - time: 1.55
      value: {fileID: 21300000, guid: ec08f33ee61d97b48ac34dea1afc5d8c, type: 3}
    - time: 1.5666667
      value: {fileID: 21300000, guid: 42624a7725628754a9800f7a700cfe49, type: 3}
    - time: 1.6166667
      value: {fileID: 21300000, guid: e106ded32d6d08642a84942ae1dd8fb8, type: 3}
    - time: 1.6666666
      value: {fileID: 21300000, guid: 00cc08e2b5210da4db3d76ac0846b1d5, type: 3}
    - time: 1.6833333
      value: {fileID: 21300000, guid: 08b7020877706564284623970832e94b, type: 3}
    - time: 1.7333333
      value: {fileID: 21300000, guid: 60f24107c8c6ebb49992067a676bbcfe, type: 3}
    - time: 1.7833333
      value: {fileID: 21300000, guid: dca5d22cf73889545bc56f242dc3bf1d, type: 3}
    - time: 1.8166667
      value: {fileID: 21300000, guid: 26c4a6e9fbc5e454a98a02ee1fd984ca, type: 3}
    - time: 1.8666667
      value: {fileID: 21300000, guid: 3e68fe219bdecff498cf65e3181d83e4, type: 3}
    - time: 1.9166666
      value: {fileID: 21300000, guid: 33cb778bb5bef574e868cb991200e61a, type: 3}
    - time: 1.95
      value: {fileID: 21300000, guid: 7c1934d633ec98548a3bc3b6690eb214, type: 3}
    - time: 2
      value: {fileID: 21300000, guid: ff32b4036884293468b2fab4772d5424, type: 3}
    attribute: m_Sprite
    path: 
    classID: 114
    script: {fileID: 11500000, guid: fe87c0e1cc204ed48ad3b37840f39efc, type: 3}
  m_SampleRate: 60
  m_WrapMode: 0
  m_Bounds:
    m_Center: {x: 0, y: 0, z: 0}
    m_Extent: {x: 0, y: 0, z: 0}
  m_ClipBindingConstant:
    genericBindings:
    - serializedVersion: 2
      path: 0
      attribute: 2015549526
      script: {fileID: 11500000, guid: fe87c0e1cc204ed48ad3b37840f39efc, type: 3}
      typeID: 114
      customType: 0
      isPPtrCurve: 1
    pptrCurveMapping:
    - {fileID: 21300000, guid: 1d70a24d950cea141a755e5386be0808, type: 3}
    - {fileID: 21300000, guid: 3503420f03bc7e44e995632f605cd161, type: 3}
    - {fileID: 21300000, guid: 286f508405b853d4d852f2cad872b5cd, type: 3}
    - {fileID: 21300000, guid: bb720c0113fa0c44184a5cde607b8504, type: 3}
    - {fileID: 21300000, guid: b00e9cde6a2d1ec4baa1af7010d06bf6, type: 3}
    - {fileID: 21300000, guid: 7c1b679e324e68242816c77025da4f6a, type: 3}
    - {fileID: 21300000, guid: fab4903ee7ea01b48ac45bcfa05c5eeb, type: 3}
    - {fileID: 21300000, guid: da32a19f538ea7342ad6f1b972e4924e, type: 3}
    - {fileID: 21300000, guid: e94975a8ee511a942be674cddce160ad, type: 3}
    - {fileID: 21300000, guid: 1914844ccbd09834d9d2e03ce7f83831, type: 3}
    - {fileID: 21300000, guid: 12839059990fca341ad3f372e10fca86, type: 3}
    - {fileID: 21300000, guid: ce416b6199311724cbd7b000cb4f1e53, type: 3}
    - {fileID: 21300000, guid: 54602bc07e7b0a84f8a45699b92f9044, type: 3}
    - {fileID: 21300000, guid: f54d7a3666710f649bc01799955fb745, type: 3}
    - {fileID: 21300000, guid: 347c5967178f24c40a80f42a442e806a, type: 3}
    - {fileID: 21300000, guid: ddccd52b91903b047b82c3d7b5ba260d, type: 3}
    - {fileID: 21300000, guid: 2198ef3fb60e3c448809fe7d1f33213d, type: 3}
    - {fileID: 21300000, guid: 4909d7f706e6b0248bba11b045e654b8, type: 3}
    - {fileID: 21300000, guid: c25661a73b91ebc46b397f70e4331418, type: 3}
    - {fileID: 21300000, guid: 8193f385c6c29844ea3b0afd779c047f, type: 3}
    - {fileID: 21300000, guid: 9c3d7c99392384541be2063779ce0132, type: 3}
    - {fileID: 21300000, guid: 6c062824b1292ea40acddaf4233eb840, type: 3}
    - {fileID: 21300000, guid: 1c26ece2f31f0db419bf96b4561219e9, type: 3}
    - {fileID: 21300000, guid: adf9e1c8fb78fb54d990a9e50b335b99, type: 3}
    - {fileID: 21300000, guid: 963957081b28d1a4489af0f00244893d, type: 3}
    - {fileID: 21300000, guid: 4f0100d7149d4914faa55c5aa4d84e07, type: 3}
    - {fileID: 21300000, guid: 3b432d9364d577d40986e769bd7d5a29, type: 3}
    - {fileID: 21300000, guid: 86ba56b84fd7a974b90a2d682a5d410f, type: 3}
    - {fileID: 21300000, guid: e7c6c8f51d62c3344b081dd978177a9c, type: 3}
    - {fileID: 21300000, guid: e841406f6cd3e8847bddc61ee00a1bbc, type: 3}
    - {fileID: 21300000, guid: 2275b8fcff97bc1448969264eebdb9f1, type: 3}
    - {fileID: 21300000, guid: 55dcbe1741b6365428b51ecf41d92070, type: 3}
    - {fileID: 21300000, guid: a949f43498db50b489b74ff3796c23a2, type: 3}
    - {fileID: 21300000, guid: d198cf7875e64884d8b67c2ff543acb2, type: 3}
    - {fileID: 21300000, guid: fc8a0e5bc6b3a5b418047e4a811fe977, type: 3}
    - {fileID: 21300000, guid: 14f1d9914d160194ba81376be29e80ed, type: 3}
    - {fileID: 21300000, guid: ec08f33ee61d97b48ac34dea1afc5d8c, type: 3}
    - {fileID: 21300000, guid: 42624a7725628754a9800f7a700cfe49, type: 3}
    - {fileID: 21300000, guid: e106ded32d6d08642a84942ae1dd8fb8, type: 3}
    - {fileID: 21300000, guid: 00cc08e2b5210da4db3d76ac0846b1d5, type: 3}
    - {fileID: 21300000, guid: 08b7020877706564284623970832e94b, type: 3}
    - {fileID: 21300000, guid: 60f24107c8c6ebb49992067a676bbcfe, type: 3}
    - {fileID: 21300000, guid: dca5d22cf73889545bc56f242dc3bf1d, type: 3}
    - {fileID: 21300000, guid: 26c4a6e9fbc5e454a98a02ee1fd984ca, type: 3}
    - {fileID: 21300000, guid: 3e68fe219bdecff498cf65e3181d83e4, type: 3}
    - {fileID: 21300000, guid: 33cb778bb5bef574e868cb991200e61a, type: 3}
    - {fileID: 21300000, guid: 7c1934d633ec98548a3bc3b6690eb214, type: 3}
    - {fileID: 21300000, guid: ff32b4036884293468b2fab4772d5424, type: 3}
  m_AnimationClipSettings:
    serializedVersion: 2
    m_AdditiveReferencePoseClip: {fileID: 0}
    m_AdditiveReferencePoseTime: 0
    m_StartTime: 0
    m_StopTime: 2.3
    m_OrientationOffsetY: 0
    m_Level: 0
    m_CycleOffset: 0
    m_HasAdditiveReferencePose: 0
    m_LoopTime: 0
    m_LoopBlend: 0
    m_LoopBlendOrientation: 0
    m_LoopBlendPositionY: 0
    m_LoopBlendPositionXZ: 0
    m_KeepOriginalOrientation: 0
    m_KeepOriginalPositionY: 1
    m_KeepOriginalPositionXZ: 0
    m_HeightFromFeet: 0
    m_Mirror: 0
  m_EditorCurves: []
  m_EulerEditorCurves: []
  m_HasGenericRootTransform: 0
  m_HasMotionFloatCurves: 0
  m_Events:
  - time: 2.3
    functionName: LoadNewScene
    data: 
    objectReferenceParameter: {fileID: 0}
    floatParameter: 0
    intParameter: 0
    messageOptions: 0
